tb_top.vcd
$date
	Fri Nov 21 14:40:55 2025
$end
$version
	Icarus Verilog
$end
$timescale
	1ps
$end
$scope module tb_top_processor $end
$var wire 32 ! wb1 [31:0] $end
$var wire 32 " wb0 [31:0] $end
$var wire 32 # imem_addr1 [31:0] $end
$var wire 32 $ imem_addr0 [31:0] $end
$var wire 32 % debug_pc [31:0] $end
$var reg 1 & clk $end
$var reg 32 ' imem_data0 [31:0] $end
$var reg 32 ( imem_data1 [31:0] $end
$var reg 1 ) reset $end
$var integer 32 * i [31:0] $end
$scope module u_cpu $end
$var wire 1 & clk $end
$var wire 32 + debug_pc_out [31:0] $end
$var wire 32 , debug_wb_data0 [31:0] $end
$var wire 32 - debug_wb_data1 [31:0] $end
$var wire 32 . imem_data0 [31:0] $end
$var wire 32 / imem_data1 [31:0] $end
$var wire 1 ) reset $end
$var wire 1 0 stall_E $end
$var wire 5 1 wb_rd1 [4:0] $end
$var wire 5 2 wb_rd0 [4:0] $end
$var wire 1 3 wb_en1 $end
$var wire 1 4 wb_en0 $end
$var wire 32 5 wb_data1 [31:0] $end
$var wire 32 6 wb_data0 [31:0] $end
$var wire 1 7 stall_F $end
$var wire 1 8 stall_D $end
$var wire 5 9 rs2_1 [4:0] $end
$var wire 5 : rs2_0 [4:0] $end
$var wire 5 ; rs1_1 [4:0] $end
$var wire 5 < rs1_0 [4:0] $end
$var wire 32 = rdata1_2 [31:0] $end
$var wire 32 > rdata1_1 [31:0] $end
$var wire 32 ? rdata0_2 [31:0] $end
$var wire 32 @ rdata0_1 [31:0] $end
$var wire 5 A rd_1 [4:0] $end
$var wire 5 B rd_0 [4:0] $end
$var wire 32 C pc_current [31:0] $end
$var wire 32 D instr1 [31:0] $end
$var wire 32 E instr0 [31:0] $end
$var wire 32 F imem_addr1 [31:0] $end
$var wire 32 G imem_addr0 [31:0] $end
$var wire 1 H flush_D $end
$var wire 32 I ex_wdata1 [31:0] $end
$var wire 32 J ex_wdata0 [31:0] $end
$var wire 1 K ex_rw1 $end
$var wire 1 L ex_rw0 $end
$var wire 32 M ex_res1 [31:0] $end
$var wire 32 N ex_res0 [31:0] $end
$var wire 5 O ex_rd1 [4:0] $end
$var wire 5 P ex_rd0 [4:0] $end
$var wire 1 Q ex_mw1 $end
$var wire 1 R ex_mw0 $end
$var wire 1 S ex_mr1 $end
$var wire 1 T ex_mr0 $end
$var reg 4 U alu_op0 [3:0] $end
$var reg 4 V alu_op1 [3:0] $end
$var reg 32 W imm0 [31:0] $end
$var reg 32 X imm1 [31:0] $end
$var reg 1 Y mem_read0 $end
$var reg 1 Z mem_read1 $end
$var reg 1 [ mem_write0 $end
$var reg 1 \ mem_write1 $end
$var reg 1 ] reg_write0 $end
$var reg 1 ^ reg_write1 $end
$var reg 1 _ use_imm0 $end
$var reg 1 ` use_imm1 $end
$scope module u_execute $end
$var wire 4 a alu_op0 [3:0] $end
$var wire 4 b alu_op1 [3:0] $end
$var wire 1 & clk $end
$var wire 32 c imm0 [31:0] $end
$var wire 32 d imm1 [31:0] $end
$var wire 1 Y mem_read0 $end
$var wire 1 Z mem_read1 $end
$var wire 1 [ mem_write0 $end
$var wire 1 \ mem_write1 $end
$var wire 5 e rd0 [4:0] $end
$var wire 5 f rd1 [4:0] $end
$var wire 1 ] reg_write0 $end
$var wire 1 ^ reg_write1 $end
$var wire 1 ) reset $end
$var wire 1 0 stall_E $end
$var wire 1 _ use_imm0 $end
$var wire 1 ` use_imm1 $end
$var wire 32 g rdata1_2 [31:0] $end
$var wire 32 h rdata1_1 [31:0] $end
$var wire 32 i rdata0_2 [31:0] $end
$var wire 32 j rdata0_1 [31:0] $end
$var wire 32 k op1_b_final [31:0] $end
$var wire 32 l op0_b_final [31:0] $end
$var wire 32 m alu1_calc [31:0] $end
$var wire 32 n alu0_calc [31:0] $end
$var parameter 4 o ALU_ADD $end
$var parameter 4 p ALU_AND $end
$var parameter 4 q ALU_OR $end
$var parameter 4 r ALU_SLL $end
$var parameter 4 s ALU_SLT $end
$var parameter 4 t ALU_SRL $end
$var parameter 4 u ALU_SUB $end
$var parameter 4 v ALU_XOR $end
$var reg 32 w alu_res0 [31:0] $end
$var reg 32 x alu_res1 [31:0] $end
$var reg 1 T mem_read0_out $end
$var reg 1 S mem_read1_out $end
$var reg 1 R mem_write0_out $end
$var reg 1 Q mem_write1_out $end
$var reg 5 y rd0_out [4:0] $end
$var reg 5 z rd1_out [4:0] $end
$var reg 1 L reg_write0_out $end
$var reg 1 K reg_write1_out $end
$var reg 32 { wdata0 [31:0] $end
$var reg 32 | wdata1 [31:0] $end
$scope function get_alu_result $end
$var reg 32 } a [31:0] $end
$var reg 32 ~ b [31:0] $end
$var reg 4 !" op [3:0] $end
$upscope $end
$upscope $end
$scope module u_fetch $end
$var wire 1 & clk $end
$var wire 32 "" imem_addr0 [31:0] $end
$var wire 32 #" imem_data0 [31:0] $end
$var wire 32 $" imem_data1 [31:0] $end
$var wire 1 ) reset $end
$var wire 1 7 stall_F $end
$var wire 1 8 stall_D $end
$var wire 32 %" imem_addr1 [31:0] $end
$var wire 1 H flush_D $end
$var wire 32 &" PC_next [31:0] $end
$var reg 32 '" PC_in [31:0] $end
$var reg 32 (" PC_out [31:0] $end
$var reg 32 )" instr0_out [31:0] $end
$var reg 32 *" instr1_out [31:0] $end
$upscope $end
$scope module u_mem_wb $end
$var wire 32 +" alu_res0 [31:0] $end
$var wire 32 ," alu_res1 [31:0] $end
$var wire 1 & clk $end
$var wire 1 T mem_read0 $end
$var wire 1 S mem_read1 $end
$var wire 1 R mem_write0 $end
$var wire 1 Q mem_write1 $end
$var wire 5 -" rd0 [4:0] $end
$var wire 5 ." rd1 [4:0] $end
$var wire 1 L reg_write0 $end
$var wire 1 K reg_write1 $end
$var wire 1 ) reset $end
$var wire 1 4 wb_en0 $end
$var wire 1 3 wb_en1 $end
$var wire 5 /" wb_rd0 [4:0] $end
$var wire 5 0" wb_rd1 [4:0] $end
$var wire 32 1" wdata0 [31:0] $end
$var wire 32 2" wdata1 [31:0] $end
$var wire 32 3" wb_data1 [31:0] $end
$var wire 32 4" wb_data0 [31:0] $end
$var reg 32 5" mem_out0 [31:0] $end
$var reg 32 6" mem_out1 [31:0] $end
$upscope $end
$scope module u_regfile $end
$var wire 1 & clk $end
$var wire 5 7" raddr0_1 [4:0] $end
$var wire 5 8" raddr0_2 [4:0] $end
$var wire 5 9" raddr1_1 [4:0] $end
$var wire 5 :" raddr1_2 [4:0] $end
$var wire 1 ) rst $end
$var wire 5 ;" waddr0 [4:0] $end
$var wire 5 <" waddr1 [4:0] $end
$var wire 32 =" wdata0 [31:0] $end
$var wire 32 >" wdata1 [31:0] $end
$var wire 1 4 wen0 $end
$var wire 1 3 wen1 $end
$var wire 32 ?" rdata1_2 [31:0] $end
$var wire 32 @" rdata1_1 [31:0] $end
$var wire 32 A" rdata0_2 [31:0] $end
$var wire 32 B" rdata0_1 [31:0] $end
$var integer 32 C" i [31:0] $end
$upscope $end
$scope module u_scoreboard $end
$var wire 1 & clk $end
$var wire 1 D" d0_raw $end
$var wire 5 E" d0_rd [4:0] $end
$var wire 5 F" d0_rs1 [4:0] $end
$var wire 5 G" d0_rs2 [4:0] $end
$var wire 1 ] d0_writes $end
$var wire 1 H" d1_raw $end
$var wire 5 I" d1_rd [4:0] $end
$var wire 5 J" d1_rs1 [4:0] $end
$var wire 5 K" d1_rs2 [4:0] $end
$var wire 1 ^ d1_writes $end
$var wire 1 ) rst $end
$var wire 1 L" waw $end
$var wire 1 4 wb_en0 $end
$var wire 1 3 wb_en1 $end
$var wire 5 M" wb_rd0 [4:0] $end
$var wire 5 N" wb_rd1 [4:0] $end
$var reg 1 H flush_D $end
$var reg 1 8 stall_D $end
$var reg 1 7 stall_F $end
$var integer 32 O" i [31:0] $end
$upscope $end
$scope task decode_instruction $end
$var reg 4 P" alu_op [3:0] $end
$var reg 3 Q" funct3 [2:0] $end
$var reg 7 R" funct7 [6:0] $end
$var reg 32 S" imm [31:0] $end
$var reg 32 T" instr [31:0] $end
$var reg 1 U" mem_read $end
$var reg 1 V" mem_write $end
$var reg 7 W" opcode [6:0] $end
$var reg 1 X" reg_write $end
$var reg 1 Y" use_imm $end
$upscope $end
$upscope $end
$upscope $end
$enddefinitions $end
$comment Show the parameter values. $end
$dumpall
b100 v
b1 u
b110 t
b111 s
b101 r
b11 q
b10 p
b0 o
$end
#0
$dumpvars
1Y"
1X"
b10011 W"
0V"
0U"
b10011 T"
b0 S"
b0 R"
b0 Q"
b0 P"
b100000 O"
b0 N"
b0 M"
0L"
b0 K"
b0 J"
b0 I"
0H"
b0 G"
b0 F"
b0 E"
0D"
b100000 C"
b0 B"
b0 A"
b0 @"
b0 ?"
b0 >"
b0 ="
b0 <"
b0 ;"
b0 :"
b0 9"
b0 8"
b0 7"
b0 6"
b0 5"
b0 4"
b0 3"
b0 2"
b0 1"
b0 0"
b0 /"
b0 ."
b0 -"
b0 ,"
b0 +"
b10011 *"
b10011 )"
b0 ("
b0 '"
b1000 &"
b100 %"
b1010000000000000100010011 $"
b101000000000000010010011 #"
b0 ""
b0 !"
b0 ~
b0 }
b0 |
b0 {
b0 z
b0 y
b0 x
b0 w
b0 n
b0 m
b0 l
b0 k
b0 j
b0 i
b0 h
b0 g
b0 f
b0 e
b0 d
b0 c
b0 b
b0 a
1`
1_
1^
1]
0\
0[
0Z
0Y
b0 X
b0 W
b0 V
b0 U
0T
0S
0R
0Q
b0 P
b0 O
b0 N
b0 M
0L
0K
b0 J
b0 I
0H
b0 G
b100 F
b10011 E
b10011 D
b0 C
b0 B
b0 A
b0 @
b0 ?
b0 >
b0 =
b0 <
b0 ;
b0 :
b0 9
08
07
b0 6
b0 5
04
03
b0 2
b0 1
00
b1010000000000000100010011 /
b101000000000000010010011 .
b0 -
b0 ,
b0 +
b100000000 *
1)
b1010000000000000100010011 (
b101000000000000010010011 '
0&
b0 %
b0 $
b100 #
b0 "
b0 !
$end
#5000
b100000 C"
b100000 O"
1&
#10000
0&
#15000
b100000 O"
b100000 C"
1&
#20000
0&
0)
#25000
07
08
b10100 m
b1010 n
b10100 ~
0L"
b10100 k
b1010 l
b10 A
b10 f
b10 I"
b10100 9
b10100 :"
b10100 K"
b1 B
b1 e
b1 E"
b1010 :
b1010 8"
b1010 G"
b10100 X
b10100 d
b1010 W
b1010 c
b10100 S"
1Y"
1X"
b1010000000000000100010011 T"
b10011 (
b10011 /
b10011 $"
b1000001000111100110011 '
b1000001000111100110011 .
b1000001000111100110011 #"
1K
1L
b1010000000000000100010011 D
b1010000000000000100010011 *"
b101000000000000010010011 E
b101000000000000010010011 )"
b10000 &"
b1100 #
b1100 F
b1100 %"
b1000 $
b1000 G
b1000 ""
b1000 '"
1&
#30000
0&
#35000
17
18
1D"
b0 m
b0 n
b0 ~
b0 k
b0 l
b10100000000000110010011 '
b10100000000000110010011 .
b10100000000000110010011 #"
b0 A
b0 f
b0 I"
b0 9
b0 :"
b0 K"
b11110 B
b11110 e
b11110 E"
b10 :
b10 8"
b10 G"
b1 <
b1 7"
b1 F"
b0 X
b0 d
b0 W
b0 c
0_
b0 S"
1Y"
1X"
b10011 W"
b10011 T"
13
b10100 !
b10100 -
b10100 5
b10100 3"
b10100 >"
14
b1010 "
b1010 ,
b1010 6
b1010 4"
b1010 ="
b11000 &"
b10100 #
b10100 F
b10100 %"
b10000 $
b10000 G
b10000 ""
b10000 '"
b1000 %
b1000 +
b1000 C
b1000 ("
b10011 D
b10011 *"
b1000001000111100110011 E
b1000001000111100110011 )"
b10 1
b10 0"
b10 <"
b10 N"
b10 O
b10 z
b10 ."
b10100 M
b10100 x
b10100 ,"
b1 2
b1 /"
b1 ;"
b1 M"
b1 P
b1 y
b1 -"
b1010 N
b1010 w
b1010 +"
1&
#40000
0&
#45000
b10100 ~
08
07
b10100 l
b11110 n
b1010 }
0D"
03
b0 !
b0 -
b0 5
b0 3"
b0 >"
b0 "
b0 ,
b0 6
b0 4"
b0 ="
b10100 ?
b10100 i
b10100 A"
b1010 @
b1010 j
b1010 B"
b0 1
b0 0"
b0 <"
b0 N"
b0 O
b0 z
b0 ."
b0 M
b0 x
b0 ,"
b11110 2
b11110 /"
b11110 ;"
b11110 M"
b11110 P
b11110 y
b11110 -"
b0 N
b0 w
b0 +"
1&
#50000
0&
#55000
b101 n
b101 ~
b0 }
b0 ?
b0 i
b0 A"
b0 @
b0 j
b0 B"
b101 l
b1111000011000111100110011 '
b1111000011000111100110011 .
b1111000011000111100110011 #"
b11 B
b11 e
b11 E"
b101 :
b101 8"
b101 G"
b0 <
b0 7"
b0 F"
b101 W
b101 c
1_
b0 S"
1Y"
1X"
b10011 T"
b11110 "
b11110 ,
b11110 6
b11110 4"
b11110 ="
b100000 &"
b11100 #
b11100 F
b11100 %"
b11000 $
b11000 G
b11000 ""
b11000 '"
b10000 %
b10000 +
b10000 C
b10000 ("
b10100000000000110010011 E
b10100000000000110010011 )"
b10100 J
b10100 {
b10100 1"
b11110 N
b11110 w
b11110 +"
1&
#60000
0&
#65000
17
18
1D"
b11110 n
b11110 ~
b11110 ?
b11110 i
b11110 A"
b11110 l
b101 "
b101 ,
b101 6
b101 4"
b101 ="
b11110 B
b11110 e
b11110 E"
b11110 :
b11110 8"
b11110 G"
b11 <
b11 7"
b11 F"
b0 W
b0 c
0_
1Y"
1X"
b10011 W"
b10011 T"
b1010000000000010110010011 (
b1010000000000010110010011 /
b1010000000000010110010011 $"
b101000000000010100010011 '
b101000000000010100010011 .
b101000000000010100010011 #"
b11 2
b11 /"
b11 ;"
b11 M"
b11 P
b11 y
b11 -"
b0 J
b0 {
b0 1"
b101 N
b101 w
b101 +"
b11000 %
b11000 +
b11000 C
b11000 ("
b1111000011000111100110011 E
b1111000011000111100110011 )"
b101000 &"
b100100 #
b100100 F
b100100 %"
b100000 $
b100000 G
b100000 ""
b100000 '"
1&
#70000
0&
#75000
08
07
0D"
b100011 n
b101 }
b101 @
b101 j
b101 B"
b11110 "
b11110 ,
b11110 6
b11110 4"
b11110 ="
b11110 2
b11110 /"
b11110 ;"
b11110 M"
b11110 P
b11110 y
b11110 -"
b11110 J
b11110 {
b11110 1"
b11110 N
b11110 w
b11110 +"
1&
#80000
0&
#85000
b10100 m
b1010 n
b10100 ~
b0 }
b0 ?
b0 i
b0 A"
b0 @
b0 j
b0 B"
b10100 k
b1010 l
b100011 "
b100011 ,
b100011 6
b100011 4"
b100011 ="
b1011 A
b1011 f
b1011 I"
b10100 9
b10100 :"
b10100 K"
b1010 B
b1010 e
b1010 E"
b1010 :
b1010 8"
b1010 G"
b0 <
b0 7"
b0 F"
b10100 X
b10100 d
b1010 W
b1010 c
1_
b10100 S"
1Y"
1X"
b1010000000000010110010011 T"
b10100000000000011010010011 (
b10100000000000011010010011 /
b10100000000000011010010011 $"
b1111000000000011000010011 '
b1111000000000011000010011 .
b1111000000000011000010011 #"
b100011 N
b100011 w
b100011 +"
b100000 %
b100000 +
b100000 C
b100000 ("
b1010000000000010110010011 D
b1010000000000010110010011 *"
b101000000000010100010011 E
b101000000000010100010011 )"
b110000 &"
b101100 #
b101100 F
b101100 %"
b101000 $
b101000 G
b101000 ""
b101000 '"
1&
#90000
0&
#95000
b101000 m
b11110 n
b101000 ~
07
08
b100011 ?
b100011 i
b100011 A"
b101000 k
b11110 l
0D"
b1000000000011110010011 (
b1000000000011110010011 /
b1000000000011110010011 $"
b100000000011100010011 '
b100000000011100010011 .
b100000000011100010011 #"
b1101 A
b1101 f
b1101 I"
b1000 9
b1000 :"
b1000 K"
b1100 B
b1100 e
b1100 E"
b11110 :
b11110 8"
b11110 G"
b101000 X
b101000 d
b1 R"
b11110 W
b11110 c
b101000 S"
1Y"
1X"
b10100000000000011010010011 T"
13
b10100 !
b10100 -
b10100 5
b10100 3"
b10100 >"
b1010 "
b1010 ,
b1010 6
b1010 4"
b1010 ="
b111000 &"
b110100 #
b110100 F
b110100 %"
b110000 $
b110000 G
b110000 ""
b110000 '"
b101000 %
b101000 +
b101000 C
b101000 ("
b10100000000000011010010011 D
b10100000000000011010010011 *"
b1111000000000011000010011 E
b1111000000000011000010011 )"
b1011 1
b1011 0"
b1011 <"
b1011 N"
b1011 O
b1011 z
b1011 ."
b10100 M
b10100 x
b10100 ,"
b1010 2
b1010 /"
b1010 ;"
b1010 M"
b1010 P
b1010 y
b1010 -"
b0 J
b0 {
b0 1"
b1010 N
b1010 w
b1010 +"
1&
#100000
0&
#105000
b10 m
b1 n
b10 ~
b10100 =
b10100 g
b10100 ?"
b1010 ?
b1010 i
b1010 A"
b10 k
b1 l
b101000 !
b101000 -
b101000 5
b101000 3"
b101000 >"
b11110 "
b11110 ,
b11110 6
b11110 4"
b11110 ="
b1111 A
b1111 f
b1111 I"
b10 9
b10 :"
b10 K"
b1110 B
b1110 e
b1110 E"
b1 :
b1 8"
b1 G"
b10 X
b10 d
b1 W
b1 c
b10 S"
1Y"
1X"
b0 R"
b1000000000011110010011 T"
b10000000000100010010011 (
b10000000000100010010011 /
b10000000000100010010011 $"
b1100000000100000010011 '
b1100000000100000010011 .
b1100000000100000010011 #"
b1101 1
b1101 0"
b1101 <"
b1101 N"
b1101 O
b1101 z
b1101 ."
b101000 M
b101000 x
b101000 ,"
b1100 2
b1100 /"
b1100 ;"
b1100 M"
b1100 P
b1100 y
b1100 -"
b100011 J
b100011 {
b100011 1"
b11110 N
b11110 w
b11110 +"
b110000 %
b110000 +
b110000 C
b110000 ("
b1000000000011110010011 D
b1000000000011110010011 *"
b100000000011100010011 E
b100000000011100010011 )"
b1000000 &"
b111100 #
b111100 F
b111100 %"
b111000 $
b111000 G
b111000 ""
b111000 '"
1&
#110000
0&
#115000
b100 m
b11 n
b100 ~
b0 =
b0 g
b0 ?"
b101 ?
b101 i
b101 A"
b100 k
b11 l
b10011 (
b10011 /
b10011 $"
b10011 '
b10011 .
b10011 #"
b10001 A
b10001 f
b10001 I"
b100 9
b100 :"
b100 K"
b10000 B
b10000 e
b10000 E"
b11 :
b11 8"
b11 G"
b100 X
b100 d
b11 W
b11 c
b100 S"
1Y"
1X"
b10000000000100010010011 T"
b10 !
b10 -
b10 5
b10 3"
b10 >"
b1 "
b1 ,
b1 6
b1 4"
b1 ="
b1001000 &"
b1000100 #
b1000100 F
b1000100 %"
b1000000 $
b1000000 G
b1000000 ""
b1000000 '"
b111000 %
b111000 +
b111000 C
b111000 ("
b10000000000100010010011 D
b10000000000100010010011 *"
b1100000000100000010011 E
b1100000000100000010011 )"
b1111 1
b1111 0"
b1111 <"
b1111 N"
b1111 O
b1111 z
b1111 ."
b10100 I
b10100 |
b10100 2"
b10 M
b10 x
b10 ,"
b1110 2
b1110 /"
b1110 ;"
b1110 M"
b1110 P
b1110 y
b1110 -"
b1010 J
b1010 {
b1010 1"
b1 N
b1 w
b1 +"
1&
#120000
0&
#125000
b0 m
b0 n
b0 ~
b0 ?
b0 i
b0 A"
b0 k
b0 l
b100 !
b100 -
b100 5
b100 3"
b100 >"
b11 "
b11 ,
b11 6
b11 4"
b11 ="
b0 A
b0 f
b0 I"
b0 9
b0 :"
b0 K"
b0 B
b0 e
b0 E"
b0 :
b0 8"
b0 G"
b0 X
b0 d
b0 W
b0 c
b0 S"
1Y"
1X"
b10011 T"
b111101011000101010110011 (
b111101011000101010110011 /
b111101011000101010110011 $"
b111001010000101000110011 '
b111001010000101000110011 .
b111001010000101000110011 #"
b10001 1
b10001 0"
b10001 <"
b10001 N"
b10001 O
b10001 z
b10001 ."
b0 I
b0 |
b0 2"
b100 M
b100 x
b100 ,"
b10000 2
b10000 /"
b10000 ;"
b10000 M"
b10000 P
b10000 y
b10000 -"
b101 J
b101 {
b101 1"
b11 N
b11 w
b11 +"
b1000000 %
b1000000 +
b1000000 C
b1000000 ("
b10011 D
b10011 *"
b10011 E
b10011 )"
b1010000 &"
b1001100 #
b1001100 F
b1001100 %"
b1001000 $
b1001000 G
b1001000 ""
b1001000 '"
1&
#130000
0&
#135000
b10 ~
b10 k
b10110 m
07
08
b1 l
b1011 n
b10100 }
b10 =
b10 g
b10 ?"
b10100 >
b10100 h
b10100 @"
0L"
b1 ?
b1 i
b1 A"
b1010 @
b1010 j
b1010 B"
b1000101101000101110110011 (
b1000101101000101110110011 /
b1000101101000101110110011 $"
b1000001100000101100110011 '
b1000001100000101100110011 .
b1000001100000101100110011 #"
b10101 A
b10101 f
b10101 I"
b1111 9
b1111 :"
b1111 K"
b1011 ;
b1011 9"
b1011 J"
b10100 B
b10100 e
b10100 E"
b1110 :
b1110 8"
b1110 G"
b1010 <
b1010 7"
b1010 F"
0`
0_
0Y"
1X"
b110011 W"
b111101011000101010110011 T"
03
b0 !
b0 -
b0 5
b0 3"
b0 >"
04
b0 "
b0 ,
b0 6
b0 4"
b0 ="
b1011000 &"
b1010100 #
b1010100 F
b1010100 %"
b1010000 $
b1010000 G
b1010000 ""
b1010000 '"
b1001000 %
b1001000 +
b1001000 C
b1001000 ("
b111101011000101010110011 D
b111101011000101010110011 *"
b111001010000101000110011 E
b111001010000101000110011 )"
b0 1
b0 0"
b0 <"
b0 N"
b0 O
b0 z
b0 ."
b0 M
b0 x
b0 ,"
b0 2
b0 /"
b0 ;"
b0 M"
b0 P
b0 y
b0 -"
b0 J
b0 {
b0 1"
b0 N
b0 w
b0 +"
1&
#140000
0&
#145000
b100 k
b101100 m
b11 l
b100001 n
b100 ~
b101000 }
b100 =
b100 g
b100 ?"
b101000 >
b101000 h
b101000 @"
b11 ?
b11 i
b11 A"
b11110 @
b11110 j
b11110 B"
13
b10110 !
b10110 -
b10110 5
b10110 3"
b10110 >"
14
b1011 "
b1011 ,
b1011 6
b1011 4"
b1011 ="
b10111 A
b10111 f
b10111 I"
b10001 9
b10001 :"
b10001 K"
b1101 ;
b1101 9"
b1101 J"
b10110 B
b10110 e
b10110 E"
b10000 :
b10000 8"
b10000 G"
b1100 <
b1100 7"
b1100 F"
1X"
b1000101101000101110110011 T"
b10011 (
b10011 /
b10011 $"
b10011 '
b10011 .
b10011 #"
b10101 1
b10101 0"
b10101 <"
b10101 N"
b10101 O
b10101 z
b10101 ."
b10 I
b10 |
b10 2"
b10110 M
b10110 x
b10110 ,"
b10100 2
b10100 /"
b10100 ;"
b10100 M"
b10100 P
b10100 y
b10100 -"
b1 J
b1 {
b1 1"
b1011 N
b1011 w
b1011 +"
b1010000 %
b1010000 +
b1010000 C
b1010000 ("
b1000101101000101110110011 D
b1000101101000101110110011 *"
b1000001100000101100110011 E
b1000001100000101100110011 )"
b1100000 &"
b1011100 #
b1011100 F
b1011100 %"
b1011000 $
b1011000 G
b1011000 ""
b1011000 '"
1&
#150000
0&
#155000
b0 m
b0 n
b0 ~
b0 }
b0 =
b0 g
b0 ?"
b0 >
b0 h
b0 @"
b0 ?
b0 i
b0 A"
b0 @
b0 j
b0 B"
b0 k
b0 l
b0 A
b0 f
b0 I"
b0 9
b0 :"
b0 K"
b0 ;
b0 9"
b0 J"
b0 B
b0 e
b0 E"
b0 :
b0 8"
b0 G"
b0 <
b0 7"
b0 F"
1`
1_
1Y"
1X"
b10011 W"
b10011 T"
b101100 !
b101100 -
b101100 5
b101100 3"
b101100 >"
b100001 "
b100001 ,
b100001 6
b100001 4"
b100001 ="
b1101000 &"
b1100100 #
b1100100 F
b1100100 %"
b1100000 $
b1100000 G
b1100000 ""
b1100000 '"
b1011000 %
b1011000 +
b1011000 C
b1011000 ("
b10011 D
b10011 *"
b10011 E
b10011 )"
b10111 1
b10111 0"
b10111 <"
b10111 N"
b10111 O
b10111 z
b10111 ."
b100 I
b100 |
b100 2"
b101100 M
b101100 x
b101100 ,"
b10110 2
b10110 /"
b10110 ;"
b10110 M"
b10110 P
b10110 y
b10110 -"
b11 J
b11 {
b11 1"
b100001 N
b100001 w
b100001 +"
1&
#160000
0&
#165000
03
b0 !
b0 -
b0 5
b0 3"
b0 >"
04
b0 "
b0 ,
b0 6
b0 4"
b0 ="
b0 1
b0 0"
b0 <"
b0 N"
b0 O
b0 z
b0 ."
b0 I
b0 |
b0 2"
b0 M
b0 x
b0 ,"
b0 2
b0 /"
b0 ;"
b0 M"
b0 P
b0 y
b0 -"
b0 J
b0 {
b0 1"
b0 N
b0 w
b0 +"
b1100000 %
b1100000 +
b1100000 C
b1100000 ("
b1110000 &"
b1101100 #
b1101100 F
b1101100 %"
b1101000 $
b1101000 G
b1101000 ""
b1101000 '"
1&
#170000
0&
#175000
b1111000 &"
b1110100 #
b1110100 F
b1110100 %"
b1110000 $
b1110000 G
b1110000 ""
b1110000 '"
b1101000 %
b1101000 +
b1101000 C
b1101000 ("
1&
#180000
0&
#185000
b1110000 %
b1110000 +
b1110000 C
b1110000 ("
b10000000 &"
b1111100 #
b1111100 F
b1111100 %"
b1111000 $
b1111000 G
b1111000 ""
b1111000 '"
1&
#190000
0&
#195000
b10001000 &"
b10000100 #
b10000100 F
b10000100 %"
b10000000 $
b10000000 G
b10000000 ""
b10000000 '"
b1111000 %
b1111000 +
b1111000 C
b1111000 ("
1&
#200000
0&
#205000
b10000000 %
b10000000 +
b10000000 C
b10000000 ("
b10010000 &"
b10001100 #
b10001100 F
b10001100 %"
b10001000 $
b10001000 G
b10001000 ""
b10001000 '"
1&
#210000
0&
#215000
b10011000 &"
b10010100 #
b10010100 F
b10010100 %"
b10010000 $
b10010000 G
b10010000 ""
b10010000 '"
b10001000 %
b10001000 +
b10001000 C
b10001000 ("
1&
#220000
0&
#225000
b10010000 %
b10010000 +
b10010000 C
b10010000 ("
b10100000 &"
b10011100 #
b10011100 F
b10011100 %"
b10011000 $
b10011000 G
b10011000 ""
b10011000 '"
1&
#230000
0&
#235000
b10101000 &"
b10100100 #
b10100100 F
b10100100 %"
b10100000 $
b10100000 G
b10100000 ""
b10100000 '"
b10011000 %
b10011000 +
b10011000 C
b10011000 ("
1&
#240000
0&
#245000
b10100000 %
b10100000 +
b10100000 C
b10100000 ("
b10110000 &"
b10101100 #
b10101100 F
b10101100 %"
b10101000 $
b10101000 G
b10101000 ""
b10101000 '"
1&
#250000
0&
#255000
b10111000 &"
b10110100 #
b10110100 F
b10110100 %"
b10110000 $
b10110000 G
b10110000 ""
b10110000 '"
b10101000 %
b10101000 +
b10101000 C
b10101000 ("
1&
#260000
0&
#265000
b10110000 %
b10110000 +
b10110000 C
b10110000 ("
b11000000 &"
b10111100 #
b10111100 F
b10111100 %"
b10111000 $
b10111000 G
b10111000 ""
b10111000 '"
1&
#270000
0&
#275000
b11001000 &"
b11000100 #
b11000100 F
b11000100 %"
b11000000 $
b11000000 G
b11000000 ""
b11000000 '"
b10111000 %
b10111000 +
b10111000 C
b10111000 ("
1&
#280000
0&
#285000
b11000000 %
b11000000 +
b11000000 C
b11000000 ("
b11010000 &"
b11001100 #
b11001100 F
b11001100 %"
b11001000 $
b11001000 G
b11001000 ""
b11001000 '"
1&
#290000
0&
#295000
b11011000 &"
b11010100 #
b11010100 F
b11010100 %"
b11010000 $
b11010000 G
b11010000 ""
b11010000 '"
b11001000 %
b11001000 +
b11001000 C
b11001000 ("
1&
#300000
0&
#305000
b11010000 %
b11010000 +
b11010000 C
b11010000 ("
b11100000 &"
b11011100 #
b11011100 F
b11011100 %"
b11011000 $
b11011000 G
b11011000 ""
b11011000 '"
1&
#310000
0&
#315000
b11101000 &"
b11100100 #
b11100100 F
b11100100 %"
b11100000 $
b11100000 G
b11100000 ""
b11100000 '"
b11011000 %
b11011000 +
b11011000 C
b11011000 ("
1&
